G75*
%MOIN*%
%OFA0B0*%
%FSLAX24Y24*%
%IPPOS*%
%LPD*%
%AMOC8*
5,1,8,0,0,1.08239X$1,22.5*
%
%ADD10C,0.0010*%
%ADD11C,0.0000*%
D10*
X002765Y000150D02*
X002765Y007150D01*
X015265Y007150D01*
X015265Y000150D01*
X002765Y000150D01*
D11*
X011554Y001400D02*
X011556Y001450D01*
X011562Y001500D01*
X011572Y001549D01*
X011585Y001598D01*
X011603Y001645D01*
X011624Y001691D01*
X011648Y001734D01*
X011676Y001776D01*
X011707Y001816D01*
X011741Y001853D01*
X011778Y001887D01*
X011818Y001918D01*
X011860Y001946D01*
X011903Y001970D01*
X011949Y001991D01*
X011996Y002009D01*
X012045Y002022D01*
X012094Y002032D01*
X012144Y002038D01*
X012194Y002040D01*
X012244Y002038D01*
X012294Y002032D01*
X012343Y002022D01*
X012392Y002009D01*
X012439Y001991D01*
X012485Y001970D01*
X012528Y001946D01*
X012570Y001918D01*
X012610Y001887D01*
X012647Y001853D01*
X012681Y001816D01*
X012712Y001776D01*
X012740Y001734D01*
X012764Y001691D01*
X012785Y001645D01*
X012803Y001598D01*
X012816Y001549D01*
X012826Y001500D01*
X012832Y001450D01*
X012834Y001400D01*
X012832Y001350D01*
X012826Y001300D01*
X012816Y001251D01*
X012803Y001202D01*
X012785Y001155D01*
X012764Y001109D01*
X012740Y001066D01*
X012712Y001024D01*
X012681Y000984D01*
X012647Y000947D01*
X012610Y000913D01*
X012570Y000882D01*
X012528Y000854D01*
X012485Y000830D01*
X012439Y000809D01*
X012392Y000791D01*
X012343Y000778D01*
X012294Y000768D01*
X012244Y000762D01*
X012194Y000760D01*
X012144Y000762D01*
X012094Y000768D01*
X012045Y000778D01*
X011996Y000791D01*
X011949Y000809D01*
X011903Y000830D01*
X011860Y000854D01*
X011818Y000882D01*
X011778Y000913D01*
X011741Y000947D01*
X011707Y000984D01*
X011676Y001024D01*
X011648Y001066D01*
X011624Y001109D01*
X011603Y001155D01*
X011585Y001202D01*
X011572Y001251D01*
X011562Y001300D01*
X011556Y001350D01*
X011554Y001400D01*
X011554Y005900D02*
X011556Y005950D01*
X011562Y006000D01*
X011572Y006049D01*
X011585Y006098D01*
X011603Y006145D01*
X011624Y006191D01*
X011648Y006234D01*
X011676Y006276D01*
X011707Y006316D01*
X011741Y006353D01*
X011778Y006387D01*
X011818Y006418D01*
X011860Y006446D01*
X011903Y006470D01*
X011949Y006491D01*
X011996Y006509D01*
X012045Y006522D01*
X012094Y006532D01*
X012144Y006538D01*
X012194Y006540D01*
X012244Y006538D01*
X012294Y006532D01*
X012343Y006522D01*
X012392Y006509D01*
X012439Y006491D01*
X012485Y006470D01*
X012528Y006446D01*
X012570Y006418D01*
X012610Y006387D01*
X012647Y006353D01*
X012681Y006316D01*
X012712Y006276D01*
X012740Y006234D01*
X012764Y006191D01*
X012785Y006145D01*
X012803Y006098D01*
X012816Y006049D01*
X012826Y006000D01*
X012832Y005950D01*
X012834Y005900D01*
X012832Y005850D01*
X012826Y005800D01*
X012816Y005751D01*
X012803Y005702D01*
X012785Y005655D01*
X012764Y005609D01*
X012740Y005566D01*
X012712Y005524D01*
X012681Y005484D01*
X012647Y005447D01*
X012610Y005413D01*
X012570Y005382D01*
X012528Y005354D01*
X012485Y005330D01*
X012439Y005309D01*
X012392Y005291D01*
X012343Y005278D01*
X012294Y005268D01*
X012244Y005262D01*
X012194Y005260D01*
X012144Y005262D01*
X012094Y005268D01*
X012045Y005278D01*
X011996Y005291D01*
X011949Y005309D01*
X011903Y005330D01*
X011860Y005354D01*
X011818Y005382D01*
X011778Y005413D01*
X011741Y005447D01*
X011707Y005484D01*
X011676Y005524D01*
X011648Y005566D01*
X011624Y005609D01*
X011603Y005655D01*
X011585Y005702D01*
X011572Y005751D01*
X011562Y005800D01*
X011556Y005850D01*
X011554Y005900D01*
M02*
